{
   "autoFormat": "onSave",
   "quoteMark": "single",
   "wrappingStyle": {
      "maxBindingNamesPerLine": 4
   },
   "sortRules": {
      "paths": [
         "AZ",
         "_",
         "az"
      ],
      "names": [
         "_",
         "aA"
      ]
   }
}
