<svg width="72" height="72" viewBox="0 0 72 72" fill="none" xmlns="http://www.w3.org/2000/svg">
<circle cx="36" cy="36" r="36" fill="#F4A418"/>
<path d="M43.6841 33.7714L30.3531 24.645C29.7374 24.2232 29.1171 24 28.6015 24C27.6047 24 26.988 24.8 26.988 26.1391V45.864C26.988 47.2015 27.6039 48 28.5984 48C29.1148 48 29.7252 47.7766 30.3422 47.3536L43.6795 38.2274C44.5372 37.6396 45.0122 36.8485 45.0122 35.9989C45.0124 35.15 44.5428 34.3591 43.6841 33.7714Z" fill="#FBFCFC"/>
</svg>
